{
  "type": "object",
  "required": [
    "description",
    "category",
    "action",
    "product_section",
    "product_stage",
    "product_group",
    "introduced_by_url",
    "milestone",
    "tiers",
    "distributions"
  ],
  "additionalProperties": false,
  "properties": {
    "description": {
      "type": "string"
    },
    "category": {
      "type": "string"
    },
    "action": {
      "type": "string"
    },
    "label_description": {
      "type": [
        "string",
        "null"
      ]
    },
    "property_description": {
      "type": [
        "string",
        "null"
      ]
    },
    "value_description": {
      "type": [
        "string",
        "null"
      ]
    },
    "extra_properties": {
      "type": [
        "object",
        "null"
      ]
    },
    "identifiers": {
      "type": [
        "array",
        "null"
      ],
      "items": {
        "type": "string",
        "enum": [
          "project",
          "user",
          "namespace"
        ]
      }
    },
    "iglu_schema_url": {
      "type": [
        "string",
        "null"
      ]
    },
    "product_section": {
      "type": "string"
    },
    "product_stage": {
      "type": [
        "string",
        "null"
      ]
    },
    "product_group": {
      "type": "string"
    },
    "introduced_by_url": {
      "type": [
        "string",
        "null"
      ],
      "format": "uri"
    },
    "milestone": {
      "type": [
        "string",
        "null"
      ],
      "pattern": "^[0-9]+\\.[0-9]+$"
    },
    "distributions": {
      "type": "array",
      "items": {
        "type": "string",
        "enum": [
          "ee",
          "ce"
        ]
      }
    },
    "tiers": {
      "type": "array",
      "items": {
        "type": "string",
        "enum": [
          "free",
          "premium",
          "ultimate"
        ]
      }
    }
  }
}
